[gd_scene load_steps=16 format=2]

[ext_resource path="res://assets/player_sheet.png" type="Texture" id=1]
[ext_resource path="res://player/Player.gd" type="Script" id=2]
[ext_resource path="res://assets/audio/jump4.ogg" type="AudioStream" id=3]
[ext_resource path="res://assets/audio/hurt1.ogg" type="AudioStream" id=4]

[sub_resource type="RectangleShape2D" id=1]
extents = Vector2( 5.66191, 10.6078 )

[sub_resource type="Animation" id=2]
resource_name = "climb"
length = 0.4
loop = true
tracks/0/type = "value"
tracks/0/path = NodePath("Sprite:frame")
tracks/0/interp = 1
tracks/0/loop_wrap = true
tracks/0/imported = false
tracks/0/enabled = true
tracks/0/keys = {
"times": PoolRealArray( 0, 0.1, 0.2, 0.3 ),
"transitions": PoolRealArray( 1, 1, 1, 1 ),
"update": 1,
"values": [ 0, 1, 0, 2 ]
}

[sub_resource type="Animation" id=3]
resource_name = "crouch"
length = 0.2
loop = true
tracks/0/type = "value"
tracks/0/path = NodePath("Sprite:frame")
tracks/0/interp = 1
tracks/0/loop_wrap = true
tracks/0/imported = false
tracks/0/enabled = true
tracks/0/keys = {
"times": PoolRealArray( 0, 0.1 ),
"transitions": PoolRealArray( 1, 1 ),
"update": 1,
"values": [ 3, 4 ]
}

[sub_resource type="Animation" id=4]
resource_name = "hurt"
length = 0.2
loop = true
tracks/0/type = "value"
tracks/0/path = NodePath("Sprite:frame")
tracks/0/interp = 1
tracks/0/loop_wrap = true
tracks/0/imported = false
tracks/0/enabled = true
tracks/0/keys = {
"times": PoolRealArray( 0, 0.1 ),
"transitions": PoolRealArray( 1, 1 ),
"update": 1,
"values": [ 5, 6 ]
}

[sub_resource type="Animation" id=5]
length = 0.4
loop = true
tracks/0/type = "value"
tracks/0/path = NodePath("Sprite:frame")
tracks/0/interp = 1
tracks/0/loop_wrap = true
tracks/0/imported = false
tracks/0/enabled = true
tracks/0/keys = {
"times": PoolRealArray( 0, 0.1, 0.2, 0.3 ),
"transitions": PoolRealArray( 1, 1, 1, 1 ),
"update": 1,
"values": [ 7, 8, 9, 10 ]
}

[sub_resource type="Animation" id=6]
resource_name = "jump_down"
length = 0.1
tracks/0/type = "value"
tracks/0/path = NodePath("Sprite:frame")
tracks/0/interp = 1
tracks/0/loop_wrap = true
tracks/0/imported = false
tracks/0/enabled = true
tracks/0/keys = {
"times": PoolRealArray( 0 ),
"transitions": PoolRealArray( 1 ),
"update": 1,
"values": [ 12 ]
}

[sub_resource type="Animation" id=7]
resource_name = "jump_up"
length = 0.1
tracks/0/type = "value"
tracks/0/path = NodePath("Sprite:frame")
tracks/0/interp = 1
tracks/0/loop_wrap = true
tracks/0/imported = false
tracks/0/enabled = true
tracks/0/keys = {
"times": PoolRealArray( 0 ),
"transitions": PoolRealArray( 1 ),
"update": 1,
"values": [ 11 ]
}

[sub_resource type="Animation" id=8]
length = 0.6
loop = true
tracks/0/type = "value"
tracks/0/path = NodePath("Sprite:frame")
tracks/0/interp = 1
tracks/0/loop_wrap = true
tracks/0/imported = false
tracks/0/enabled = true
tracks/0/keys = {
"times": PoolRealArray( 0, 0.1, 0.2, 0.3, 0.4, 0.5 ),
"transitions": PoolRealArray( 1, 1, 1, 1, 1, 1 ),
"update": 1,
"values": [ 13, 14, 15, 16, 17, 18 ]
}

[sub_resource type="Gradient" id=9]
colors = PoolColorArray( 0.972656, 0.866688, 0.00379944, 1, 0.611765, 0.482353, 0.133333, 0 )

[sub_resource type="GradientTexture" id=10]
gradient = SubResource( 9 )

[sub_resource type="ParticlesMaterial" id=11]
emission_shape = 2
emission_box_extents = Vector3( 1, 6, 1 )
flag_disable_z = true
gravity = Vector3( 0, 0, 0 )
initial_velocity = 10.0
initial_velocity_random = 1.0
orbit_velocity = 0.0
orbit_velocity_random = 0.0
scale = 5.0
scale_random = 1.0
color_ramp = SubResource( 10 )

[node name="Player" type="KinematicBody2D"]
collision_layer = 2147483650
collision_mask = 13
script = ExtResource( 2 )
__meta__ = {
"_edit_group_": true
}
run_speed = 150
jump_speed = -305
gravity = 750
climb_speed = 50

[node name="Sprite" type="Sprite" parent="."]
texture = ExtResource( 1 )
hframes = 19

[node name="CollisionShape2D" type="CollisionShape2D" parent="."]
position = Vector2( 0, 5 )
shape = SubResource( 1 )

[node name="AnimationPlayer" type="AnimationPlayer" parent="."]
anims/climb = SubResource( 2 )
anims/crouch = SubResource( 3 )
anims/hurt = SubResource( 4 )
anims/idle = SubResource( 5 )
anims/jump_down = SubResource( 6 )
anims/jump_up = SubResource( 7 )
anims/run = SubResource( 8 )

[node name="Camera2D" type="Camera2D" parent="."]
current = true
zoom = Vector2( 0.4, 0.4 )
limit_top = 0

[node name="Dust" type="Particles2D" parent="."]
position = Vector2( -2, 15 )
rotation = -1.5708
emitting = false
amount = 20
lifetime = 0.45
one_shot = true
speed_scale = 2.0
explosiveness = 0.7
local_coords = false
process_material = SubResource( 11 )

[node name="JumpSound" type="AudioStreamPlayer" parent="."]
stream = ExtResource( 3 )
volume_db = -10.0

[node name="HurtSound" type="AudioStreamPlayer" parent="."]
stream = ExtResource( 4 )
volume_db = -10.0
